Division,WeightClassKg,Place,Name,Team,BodyweightKg,Best3SquatKg,Best3BenchKg,Best3DeadliftKg,TotalKg,Equipment,Event,Sex,BirthDate
Girls,44.23,1,Kirsten Boyd,Alvarado,43.18,115.67,56.7,111.13,283.5,Single-ply,SBD,F,
Girls,47.85,1,Tatiana Contreras,Springtown,47.63,149.69,72.57,145.15,367.41,Single-ply,SBD,F,
Girls,47.85,2,Britney Yannello,Springtown,46.81,97.52,49.9,124.74,272.16,Single-ply,SBD,F,
Girls,47.85,3,Olivia Hernandez,Alvarado,47.26,97.52,54.43,102.06,254.01,Single-ply,SBD,F,
Girls,47.85,4,Madelaine Brown,Burleson,47.72,108.86,45.36,95.25,249.48,Single-ply,SBD,F,
Girls,47.85,5,Harlee Owen,Alvarado,47.63,97.52,47.63,102.06,247.21,Single-ply,SBD,F,
Girls,47.85,6,Abigail Doyle,Burleson,47.08,97.52,36.29,99.79,233.6,Single-ply,SBD,F,
Girls,47.85,7,Bianca Arciniega,Burleson Centennial,47.54,81.65,38.56,97.52,217.72,Single-ply,SBD,F,
Girls,47.85,8,Ayari Garcia,Corsicana,45.54,68.04,31.75,81.65,181.44,Single-ply,SBD,F,
Girls,51.94,1,Caitlyn Coleman,Springtown,51.44,145.15,68.04,117.93,331.12,Single-ply,SBD,F,
Girls,51.94,2,Rachel Stephens,Springtown,50.53,120.2,58.97,113.4,292.57,Single-ply,SBD,F,
Girls,51.94,3,Hailey Sanchez,Burleson,50.26,113.4,45.36,129.27,288.03,Single-ply,SBD,F,
Girls,51.94,4,MaKayla Moulton,Burleson,51.8,104.33,58.97,124.74,288.03,Single-ply,SBD,F,
Girls,51.94,5,Beatriz Garcia,Waxahachie,50.71,111.13,43.09,115.67,269.89,Single-ply,SBD,F,
Girls,51.94,6,Lexsie Thomas,Burleson,48.72,97.52,45.36,106.59,249.48,Single-ply,SBD,F,
Girls,51.94,7,Gianna Cook,Burleson Centennial,49.08,83.91,47.63,115.67,247.21,Single-ply,SBD,F,
Girls,51.94,8,Braelyn Thiele,Alvarado,51.07,92.99,45.36,102.06,240.4,Single-ply,SBD,F,
Girls,51.94,9,Carlota Blanco,Burleson Centennial,51.71,86.18,31.75,81.65,199.58,Single-ply,SBD,F,
Girls,56.02,1,Myra Castro,Springtown,55.97,163.29,74.84,147.42,385.55,Single-ply,SBD,F,
Girls,56.02,2,Bailey Steward,Burleson Centennial,55.52,136.08,68.04,127.01,331.12,Single-ply,SBD,F,
Girls,56.02,3,Dreonna Foster,Alvarado,52.8,113.4,68.04,129.27,310.71,Single-ply,SBD,F,
Girls,56.02,4,Hazel Jackson,Joshua,53.52,120.2,65.77,120.2,306.17,Single-ply,SBD,F,
Girls,56.02,5,Brittany Applegate,Cleburne,54.43,113.4,65.77,127.01,306.17,Single-ply,SBD,F,
Girls,56.02,6,Lauren Osbourne,Springtown,55.52,122.47,63.5,113.4,299.37,Single-ply,SBD,F,
Girls,56.02,7,Nichole Lares,Cleburne,53.71,115.67,52.16,113.4,281.23,Single-ply,SBD,F,
Girls,56.02,8,Elizabeth Meraz,Cleburne,54.34,115.67,54.43,108.86,278.96,Single-ply,SBD,F,
Girls,56.02,9,Heather Gee,Alvarado,53.89,108.86,52.16,111.13,272.16,Single-ply,SBD,F,
Girls,56.02,10,Wendy Silva,Midlothian,55.97,115.67,56.7,99.79,272.16,Single-ply,SBD,F,
Girls,56.02,11,Nyah Bracken,Midlothian,53.16,97.52,40.82,122.47,260.82,Single-ply,SBD,F,
Girls,56.02,12,Morgan Byrd,Burleson Centennial,55.97,97.52,45.36,117.93,260.82,Single-ply,SBD,F,
Girls,56.02,13,Fabiola Menendez,Alvarado,53.52,97.52,43.09,104.33,244.94,Single-ply,SBD,F,
Girls,56.02,14,Tamiya Sylvain,Crowley,51.98,88.45,34.02,102.06,224.53,Single-ply,SBD,F,
Girls,56.02,15,Aryanna Willis,Joshua,55.52,74.84,38.56,88.45,201.85,Single-ply,SBD,F,
Girls,56.02,16,Sandy Guajardo,Corsicana,52.53,81.65,29.48,79.38,190.51,Single-ply,SBD,F,
Girls,56.02,17,Katelyn Newsome,Midlothian,54.98,74.84,31.75,70.31,176.9,Single-ply,SBD,F,
Girls,56.02,DQ,Shanthal Blancas,Corsicana,55.97,95.25,,,,Single-ply,SBD,F,
Girls,60.1,1,Jadyn Govea,Cleburne,58.42,149.69,92.99,145.15,387.82,Single-ply,SBD,F,
Girls,60.1,2,Erin Hall,Springtown,59.87,129.27,72.57,120.2,322.05,Single-ply,SBD,F,
Girls,60.1,3,Taylor Moore,Burleson,59.51,120.2,63.5,131.54,315.25,Single-ply,SBD,F,
Girls,60.1,4,Jaqueline Aguilar,Alvarado,58.97,129.27,54.43,129.27,312.98,Single-ply,SBD,F,
Girls,60.1,5,Macy Chavez,Springtown,58.97,129.27,65.77,102.06,297.1,Single-ply,SBD,F,
Girls,60.1,6,Catherine Monk,Corsicana,58.33,108.86,61.23,104.33,274.42,Single-ply,SBD,F,
Girls,60.1,7,Allie Hale,Hillsboro,56.7,97.52,45.36,90.72,233.6,Single-ply,SBD,F,
Girls,60.1,8,Vanessa Cervantes,Corsicana,60.06,88.45,47.63,92.99,229.06,Single-ply,SBD,F,
Girls,60.1,9,Haley Rudd,Burleson Centennial,59.92,74.84,52.16,97.52,224.53,Single-ply,SBD,F,
Girls,60.1,10,Karina Estrada,Corsicana,58.97,92.99,31.75,92.99,217.72,Single-ply,SBD,F,
Girls,60.1,11,Gabby Rudd,Burleson Centennial,57.24,77.11,52.16,83.91,213.19,Single-ply,SBD,F,
Girls,60.1,DQ,Eden Buchanan,Burleson Centennial,59.42,117.93,,,,Single-ply,SBD,F,
Girls,67.36,1,Cierra Miller,Springtown,67.22,154.22,88.45,133.81,376.48,Single-ply,SBD,F,
Girls,67.36,2,Emalie Arnold,Alvarado,64.95,149.69,83.91,131.54,365.14,Single-ply,SBD,F,
Girls,67.36,3,Reagan Gault,Burleson,67.13,138.35,74.84,122.47,335.66,Single-ply,SBD,F,
Girls,67.36,4,Taylor Melton,Burleson Centennial,67.22,120.2,63.5,136.08,319.78,Single-ply,SBD,F,
Girls,67.36,5,Kaitlyn Garza,Burleson,65.77,124.74,65.77,127.01,317.51,Single-ply,SBD,F,
Girls,67.36,6,Cate Heiner,Godley,64.41,122.47,49.9,129.27,301.64,Single-ply,SBD,F,
Girls,67.36,7,Jayden Jennings,Burleson Centennial,63.32,120.2,65.77,113.4,299.37,Single-ply,SBD,F,
Girls,67.36,8,Toviyah Williams,Corsicana,66.86,113.4,45.36,133.81,292.57,Single-ply,SBD,F,
Girls,67.36,9,Jade Wywias,Burleson,64.95,106.59,58.97,111.13,276.69,Single-ply,SBD,F,
Girls,67.36,10,Kenna Kenjura,Burleson,66.59,111.13,49.9,99.79,260.82,Single-ply,SBD,F,
Girls,67.36,11,Samantha Mendoza,Corsicana,61.78,99.79,38.56,111.13,249.48,Single-ply,SBD,F,
Girls,67.36,12,Bri Guzman,Burleson Centennial,65.77,106.59,45.36,97.52,249.48,Single-ply,SBD,F,
Girls,67.36,13,Bianca Ragoonath,Burleson,63.14,97.52,40.82,97.52,235.87,Single-ply,SBD,F,
Girls,67.36,14,Allison Ramsey,Midlothian,66.59,92.99,43.09,81.65,217.72,Single-ply,SBD,F,
Girls,75.07,1,Madelynn Vining,Springtown,73.03,190.51,115.67,147.42,453.59,Single-ply,SBD,F,
Girls,75.07,2,Angela Pando,Springtown,72.3,165.56,99.79,151.95,417.3,Single-ply,SBD,F,
Girls,75.07,3,Logan Loggins,Burleson,73.75,158.76,72.57,158.76,390.09,Single-ply,SBD,F,
Girls,75.07,4,Allison Perez,Cleburne,70.67,154.22,74.84,136.08,365.14,Single-ply,SBD,F,
Girls,75.07,5,Madison Hines,Weatherford,72.39,147.42,74.84,122.47,344.73,Single-ply,SBD,F,
Girls,75.07,6,Maddie Hargrove,Cleburne,73.94,127.01,65.77,136.08,328.85,Single-ply,SBD,F,
Girls,75.07,7,Kenzie Mayes,Godley,74.3,120.2,68.04,129.27,317.51,Single-ply,SBD,F,
Girls,75.07,8,Alexius LeBlanc,Crowley,68.76,111.13,61.23,113.4,285.76,Single-ply,SBD,F,
Girls,75.07,9,Rimira Smith,Burleson Centennial,69.31,106.59,61.23,117.93,285.76,Single-ply,SBD,F,
Girls,75.07,10,Taiz Hawkins,Corsicana,73.57,113.4,47.63,124.74,285.76,Single-ply,SBD,F,
Girls,75.07,11,Azlyn Schwarzer,Burleson,71.94,111.13,45.36,122.47,278.96,Single-ply,SBD,F,
Girls,75.07,12,Jessica Cuffin,Midlothian,70.4,106.59,63.5,104.33,274.42,Single-ply,SBD,F,
Girls,75.07,13,Madison DeLeon,Midlothian,72.3,115.67,58.97,99.79,274.42,Single-ply,SBD,F,
Girls,75.07,14,Teela Polk,Corsicana,74.21,102.06,56.7,104.33,263.08,Single-ply,SBD,F,
Girls,75.07,15,Johanna DeJonge,Burleson Centennial,68.49,83.91,72.57,95.25,251.74,Single-ply,SBD,F,
Girls,75.07,16,Bella Thomas,Burleson,68.22,86.18,40.82,99.79,226.8,Single-ply,SBD,F,
Girls,75.07,17,Meghan Minton,Joshua,71.4,90.72,38.56,88.45,217.72,Single-ply,SBD,F,
Girls,75.07,18,Sheccid Panigua,Burleson Centennial,72.03,74.84,56.7,77.11,208.65,Single-ply,SBD,F,
Girls,82.33,1,Abigail Mitchell,Joshua,79.47,204.12,102.06,158.76,464.93,Single-ply,SBD,F,
Girls,82.33,2,Mariah Carter,Waxahachie,77.2,181.44,72.57,170.1,424.11,Single-ply,SBD,F,
Girls,82.33,3,Isabella Roberts,Burleson,76.84,163.29,79.38,138.35,381.02,Single-ply,SBD,F,
Girls,82.33,4,Keiandrea Jones,Corsicana,78.29,120.2,56.7,158.76,335.66,Single-ply,SBD,F,
Girls,82.33,5,Jaedyn Campos,Hillsboro,78.83,131.54,86.18,117.93,335.66,Single-ply,SBD,F,
Girls,82.33,6,Tiana Stevenson,Burleson Centennial,79.92,124.74,72.57,113.4,310.71,Single-ply,SBD,F,
Girls,82.33,7,Faith Gilstrap,Burleson,81.56,124.74,65.77,117.93,308.44,Single-ply,SBD,F,
Girls,82.33,8,La'Kimbria McTiller,Burleson Centennial,78.2,117.93,72.57,108.86,299.37,Single-ply,SBD,F,
Girls,82.33,9,Madi Dodd,Burleson,76.38,106.59,56.7,115.67,278.96,Single-ply,SBD,F,
Girls,82.33,10,Itzel Martinez,Burleson Centennial,78.29,106.59,58.97,113.4,278.96,Single-ply,SBD,F,
Girls,82.33,11,Brooklyn Meneely,Joshua,76.11,111.13,38.56,88.45,238.14,Single-ply,SBD,F,
Girls,82.33,12,Heather Lizarraga,Waxahachie,76.38,92.99,43.09,102.06,238.14,Single-ply,SBD,F,
Girls,82.33,13,Aliyah Najera,Joshua,81.83,102.06,34.02,90.72,226.8,Single-ply,SBD,F,
Girls,82.33,14,Pia Bergmann,Burleson Centennial,78.2,90.72,45.36,83.91,219.99,Single-ply,SBD,F,
Girls,82.33,15,Emma Stapp-Stuckey,Alvarado,79.02,72.57,43.09,63.5,179.17,Single-ply,SBD,F,
Girls,82.33,DQ,Daisha Spelmon,Crowley,76.02,,38.56,,,Single-ply,SBD,F,
Girls,90.04,1,Kaylee Damron,Joshua,82.92,210.92,113.4,176.9,501.22,Single-ply,SBD,F,
Girls,90.04,2,Avery Tapia,Cleburne,88.63,161.03,90.72,122.47,374.21,Single-ply,SBD,F,
Girls,90.04,3,Junie Harry,Corsicana,88.9,136.08,63.5,156.49,356.07,Single-ply,SBD,F,
Girls,90.04,4,Fatima Cansino,Weatherford,86.36,151.95,70.31,124.74,347,Single-ply,SBD,F,
Girls,90.04,5,Sydney Lewis,Burleson Centennial,88.9,133.81,65.77,122.47,322.05,Single-ply,SBD,F,
Girls,90.04,6,Kayla Arias,Burleson,88.99,115.67,49.9,131.54,297.1,Single-ply,SBD,F,
Girls,90.04,7,Kodi Loper,Midlothian,87,113.4,65.77,115.67,294.84,Single-ply,SBD,F,
Girls,90.04,8,Tirzah Meis,Burleson Centennial,89.95,115.67,70.31,108.86,294.84,Single-ply,SBD,F,
Girls,90.04,9,Malena Stoecker,Midlothian,89.09,108.86,72.57,108.86,290.3,Single-ply,SBD,F,
Girls,90.04,10,Jenna Green,Burleson,88.18,120.2,63.5,104.33,288.03,Single-ply,SBD,F,
Girls,90.04,11,Haylee Gomez,Waxahachie,84.19,92.99,43.09,88.45,224.53,Single-ply,SBD,F,
Girls,90.04,DQ,Jermya Butler,Crowley,83.19,,,,,Single-ply,SBD,F,
Girls,90.04,DQ,Mayte Martinez,Cleburne,88.63,,,,,Single-ply,SBD,F,
Girls,90.04,DQ,Hayleigh Cox,Burleson Centennial,85.73,,,,,Single-ply,SBD,F,
Girls,100.02,1,Angela Chavez,Springtown,94.71,195.04,97.52,167.83,460.4,Single-ply,SBD,F,
Girls,100.02,2,Jakiya Wade,Burleson,98.43,188.24,92.99,172.37,453.59,Single-ply,SBD,F,
Girls,100.02,3,Gabi Cantu,Midlothian,95.07,142.88,97.52,145.15,385.55,Single-ply,SBD,F,
Girls,100.02,4,Jessica Peterson,Burleson,97.89,156.49,68.04,140.61,365.14,Single-ply,SBD,F,
Girls,100.02,5,Hailey Hambrice,Godley,93.44,165.56,61.23,133.81,360.61,Single-ply,SBD,F,
Girls,100.02,6,Audra Parsons,Cleburne,91.99,147.42,72.57,124.74,344.73,Single-ply,SBD,F,
Girls,100.02,7,Lexi Chandler,Waxahachie,92.17,124.74,65.77,133.81,324.32,Single-ply,SBD,F,
Girls,100.02,8,Brittyn Huston,Alvarado,95.8,145.15,68.04,90.72,303.91,Single-ply,SBD,F,
Girls,100.02,9,Saniya Pringle,Burleson Centennial,95.71,92.99,52.16,124.74,269.89,Single-ply,SBD,F,
Girls,117.71,1,Aerianna Shaw,Corsicana,107.23,174.63,72.57,174.63,421.84,Single-ply,SBD,F,
Girls,117.71,2,Nicole Due,Midlothian,112.04,145.15,77.11,161.03,383.29,Single-ply,SBD,F,
Girls,117.71,3,Abbie Thumudo,Burleson Centennial,114.4,142.88,74.84,133.81,351.53,Single-ply,SBD,F,
Girls,117.71,4,Ebony Farrow,Crowley,110.86,113.4,47.63,113.4,274.42,Single-ply,SBD,F,
Girls,117.71,DQ,Maria Ruiz,Corsicana,117.3,,,,,Single-ply,SBD,F,
Girls,117.71+,1,Blake Jarvis,Springtown,125.46,213.19,122.47,154.22,489.88,Single-ply,SBD,F,
Girls,117.71+,2,Lori Gutierrez,Corsicana,125.92,197.31,90.72,142.88,430.91,Single-ply,SBD,F,
Girls,117.71+,3,Kyra Baker,Cleburne,151.41,102.06,40.82,113.4,256.28,Single-ply,SBD,F,
Girls,117.71+,DQ,Madison Sykes,Corsicana,121.2,161.03,77.11,,,Single-ply,SBD,F,
Girls,,NS,Kylee Grigsby,Cleburne,,,,,,Single-ply,SBD,F,
Girls,,NS,Deavion Harris,Georgetown,,,,,,Single-ply,SBD,F,
Girls,,NS,Abby Hodsgon,Georgetown,,,,,,Single-ply,SBD,F,
Girls,,NS,Avery Miloch,Georgetown,,,,,,Single-ply,SBD,F,
Girls,,NS,Kelsey Rohleder,Joshua,,,,,,Single-ply,SBD,F,
Girls,,NS,Allana Cook,Midlothian,,,,,,Single-ply,SBD,F,
Girls,,NS,Madeline Hodges,Midlothian,,,,,,Single-ply,SBD,F,
Girls,,NS,Marta Cacopardo,Burleson Centennial,,,,,,Single-ply,SBD,F,
