Sex,Division,Name,BodyweightKg,Squat1Kg,Squat2Kg,Squat3Kg,Best3SquatKg,Bench1Kg,Bench2Kg,Bench3Kg,Best3BenchKg,Deadlift1Kg,Deadlift2Kg,Deadlift3Kg,Best3DeadliftKg,WeightClassKg,TotalKg,Place,Event,Equipment
M,Master I,Adrian Pony,108.9,190,205,-220,205,-130,130,-140,130,240,-260,-260,240,110,575,1,SBD,Single-ply
M,Open,Alan Bertolini,74.4,160,170,180,180,100,105,-110,105,220,232.5,-247.5,232.5,75,517.5,1,SBD,Raw
M,Master I,Alberto Vai,93.9,140,150,160,160,105,110,115,115,170,180,192.5,192.5,100,467.5,3,SBD,Raw
M,Master I,Alessandro Favorito,92.7,300,-312.5,-325,300,130,180,-202.5,180,260,-301,-301,260,100,740,1,SBD,Single-ply
M,Master I,Alessandro Schiavon,115.6,200,210,225,225,140,-150,-150,140,240,255,265,265,125,630,2,SBD,Raw
M,Open,Alessio Marazzini,94.6,185,200,210,210,120,127.5,-132.5,127.5,215,230,240,240,100,577.5,3,SBD,Raw
M,Open,Alex Barattoni,84.9,145,155,-165,155,-115,125,-130,125,195,205,-220,205,90,485,4,SBD,Raw
M,Master I,Alfredo Iamonaco,101.9,180,-185,-185,180,-110,115,-120,115,210,215,-220,215,110,510,1,SBD,Raw
M,Open,Andrea Marino,121.1,125,140,-165,140,125,130,-140,130,180,-190,190,190,125,460,2,SBD,Raw
M,Open,Andrea Mondo,85.9,182.5,-192.5,192.5,192.5,102.5,-107.5,-107.5,102.5,215,225,237.5,237.5,90,532.5,2,SBD,Raw
M,Junior,Andrea Parolini,71.4,160,170,180,180,-115,115,-125,115,-160,,,,75,,DQ,SBD,Single-ply
M,Junior,Antonio Albano,70,-210,-210,-210,,-120,120,-130,120,205,210,-220,210,75,,DQ,SBD,Single-ply
M,Open,Antonio Frassinetti,97.6,-220,-220,-220,,,,,,,,,,100,,DQ,SBD,Single-ply
M,Open,Antonio Marcellino,66.8,115,-130,-130,115,110,115,-117.5,115,175,185,-195,185,67.5,415,1,SBD,Raw
M,Master I,Antonio Palladini,81,115,122.5,130,130,90,-95,-95,90,185,195,-205,195,82.5,415,1,SBD,Raw
M,Open,Carlo Buzzichelli,78.3,-130,130,135,135,95,-97.5,-100,95,160,165,170,170,82.5,400,5,SBD,Raw
M,Junior,Carmelo Fama,78,180,190,-195,190,-130,-130,-130,,180,190,200,200,82.5,,DQ,SBD,Single-ply
M,Master I,Claudio D'Ovidio,104.8,,,,,,,,,,,,,110,,DQ,SBD,Single-ply
M,Open,Claudio Zanella,69.3,180,200,-215,200,145,150,155,155,200,215,-225,215,75,570,2,SBD,Single-ply
M,Open,Cristian Voso,98.6,-310,-330,-350,,,,,,,,,,100,,DQ,SBD,Single-ply
M,Open,Cristiano Morresi,68.1,215,222.5,230,230,125,132.5,140,140,220,230,235,235,75,605,1,SBD,Single-ply
M,Open,Damiano Boscarino,78.1,180,195,-205,195,100,-110,-110,100,180,200,-205,200,82.5,495,1,SBD,Raw
M,Open,Damiano Di Pilla,85,175,-190,190,190,120,125,130,130,220,230,240,240,90,560,1,SBD,Raw
M,Master I,Daniele Ghirardi,90,-290,320,-332.5,320,220,230,-242.5,230,320,340,,340,90,890,1,SBD,Single-ply
M,Junior,Daniele Pomarico,69,55,,,55,-142.5,142.5,-160.5,142.5,55,,,55,75,252.5,2,SBD,Single-ply
M,Open,Daniele Tarchi,55.7,155,165,170,170,95,-105,-105,95,195,-200,-200,195,56,460,1,SBD,Single-ply
M,Open,Dario Dellaquila,57.5,-175,175,190,190,-120,120,-125,120,170,190,200,200,60,510,1,SBD,Single-ply
M,Open,Davide Ferrante,93.9,160,170,-180,170,105,112.5,-117.5,112.5,190,-200,,190,100,472.5,5,SBD,Raw
M,Open,Emidio Farina,110.1,-250,260,-280,260,-170,-180,-180,,280,-300,,280,125,,DQ,SBD,Single-ply
M,Open,Enrico Bomboletti,107.7,310,-320,,310,170,180,185,185,280,-290,290,290,110,785,2,SBD,Single-ply
M,Open,Fabiano Cadin,82.6,-160,-160,-170,,115,120,-125,120,215,225,230,230,90,,DQ,SBD,Raw
M,Master I,Fabiano Fulvi,93.1,200,-210,215,215,150,155,-160,155,240,260,-265,260,100,630,2,SBD,Single-ply
M,Master I,Fabio Formicola,83.8,100,,,100,200,-207.5,-207.5,200,100,,,100,90,400,2,SBD,Single-ply
M,Open,Fabio Pantaleoni,76.2,140,147.5,-152.5,147.5,110,117.5,122.5,122.5,170,185,192.5,192.5,82.5,462.5,2,SBD,Raw
M,Sub-Junior,Federico Pregnolato,71,145,155,170,170,80,85,90,90,155,170,-185,170,75,430,1,SBD,Single-ply
M,Open,Francesco Bulfoni,75.2,130,-140,140,140,85,90,-100,90,165,180,200,200,82.5,430,4,SBD,Raw
M,Open,Francesco Gatta,74.2,85,95,-105,95,100,105,-112.5,105,110,125,135,135,75,335,2,SBD,Raw
M,Junior,Francesco Pelizza,121.1,220,240,250,250,150,165,-175,165,240,260,-287.5,260,125,675,1,SBD,Raw
M,Master II,Franco Giummarra,56.5,175,-190,200.5,200.5,65,70,-75,70,205,-215.5,-215.5,205,60,475.5,1,SBD,Single-ply
M,Open,Giancarlo Natale,83,160,170,180,180,130,135,140,140,200,-215,-215,200,90,520,2,SBD,Single-ply
M,Open,Gianfranco Ghirarduzzi,87.7,-160,-160,160,160,130,-137.5,140,140,180,195,202.5,202.5,90,502.5,3,SBD,Raw
M,Junior,Gianluca Pomarico,83.6,165,175,185,185,115,120,125,125,200,210,-220,210,90,520,1,SBD,Single-ply
M,Master II,Giorgio Agostinoni,81.3,235,250,-265,250,137.5,140,142.5,142.5,240,250,-255,250,82.5,642.5,2,SBD,Single-ply
M,Junior,Giovanni Bonazza,90.6,220,-230,-230,220,140,-150,-150,140,230,240,-250,240,100,600,2,SBD,Single-ply
M,Open,Giuseppe Dabundo,80.7,195,205,-215,205,115,122.5,130,130,210,225,-240,225,82.5,560,2,SBD,Single-ply
M,Junior,Giuseppe Manca,73.4,160,170,180,180,100,115,125,125,185,200,220,220,75,525,1,SBD,Raw
M,Open,Giuseppe Tozza,80.6,130,-140,-145,130,80,-85,-85,80,160,170,180,180,82.5,390,6,SBD,Raw
M,Sub-Junior,Gurdeep Singh,96.5,210,215,222.5,222.5,-132.5,132.5,140,140,190,-210,-210,190,100,552.5,1,SBD,Single-ply
M,Open,Jacopo Mastrostefano,98.7,160,170,180,180,110,-115,-115,110,230,245,255,255,100,545,4,SBD,Raw
M,Sub-Junior,Jas Singh,68.1,-125,125,132.5,132.5,65,75,-80,75,150,160,-167.5,160,75,367.5,2,SBD,Single-ply
M,Master I,Lanno Costanzi,73.4,170,175,180,180,145,150,-155,150,200,210,230,230,75,560,1,SBD,Raw
M,Open,Leonardo Corsi,79.3,250,275,285,285,165,-180,-180,165,225,250,-260,250,82.5,700,1,SBD,Single-ply
M,Open,Luca Lama,87.7,120,130,-140,130,110,122.5,-127.5,122.5,140,155,170,170,90,422.5,5,SBD,Raw
M,Open,Marco Dottore,82.9,180,190,200,200,-150,-150,-150,,,,,,90,,DQ,SBD,Single-ply
M,Open,Marco Lazzari,110.5,195,210,225,225,170,180,190,190,250,270,295,295,125,710,1,SBD,Raw
M,Open,Marco Millul,80.2,135,150,160,160,102.5,112.5,-120,112.5,150,160,170,170,82.5,442.5,3,SBD,Raw
M,Junior,Marco Pellegrino,73.4,130,140,150,150,-110,110,-120,110,165,180,190,190,75,450,3,SBD,Raw
M,Junior,Marco Rigoni,85.4,185,-195,-195,185,100,-105,-105,100,210,220,-232.5,220,90,505,2,SBD,Single-ply
M,Open,Mario Pacione,154,-225,230,245,245,210,-225,230,230,260,-280,280,280,125+,755,1,SBD,Raw
M,Junior,Mattia Di Martino,117.3,190,210,230,230,140,-150,-150,140,260,270,280,280,125,650,1,SBD,Single-ply
M,Master II,Noriano Coppari,75,-215,215,225,225,145,-156,156,156,-220,230,-235,230,75,611,1,SBD,Single-ply
M,Master I,Paolo Petrongari,59.3,130,140,150,150,85,-105,-105,85,150,165,-170,165,60,400,1,SBD,Single-ply
M,Master I,Paolo Pollastri,110.6,210,220,230,230,170,-180,-190,170,220,235,250,250,125,650,1,SBD,Raw
M,Master I,Piero Boni,95.3,175,-185,185,185,140,145,147.5,147.5,-220,230,-240,230,100,562.5,1,SBD,Raw
M,Sub-Junior,Piero Fusco,63.4,95,105,-112.5,105,65,77.5,-85,77.5,125,130,140,140,67.5,322.5,1,SBD,Single-ply
M,Junior,Piero Liuzzi,94.1,220,232.5,-242.5,232.5,155,-165,165,165,240,252.5,260,260,100,657.5,1,SBD,Single-ply
M,Master I,Renato Gismondi,118.1,240,260,-280,260,-190,190,-200,190,240,-250,-250,240,125,690,1,SBD,Single-ply
M,Junior,Riccardo Rollo,80.4,220,227.5,235,235,-155,-155,155,155,230,240,-252.5,240,82.5,630,1,SBD,Single-ply
M,Master I,Roberto Bettati,91.6,150,170,180,180,110,122.5,130,130,180,200,-220,200,100,510,2,SBD,Raw
M,Junior,Salvatore Deiana,68.5,120,130,-140,130,95,100,-105,100,160,170,-180,170,75,400,4,SBD,Raw
M,Master II,Salvatore Venuto,82.4,215,230,240,240,180,190,200,200,215,230,240,240,82.5,680,1,SBD,Single-ply
M,Master II,Sandro Rossi,87.9,245,260,275,275,-132.5,132.5,-135,132.5,240,260,275,275,90,682.5,1,SBD,Single-ply
M,Master III,Sergio Zanetti,76.5,-205,207.5,215,215,110,115,-120,115,190,-200.5,-200.5,190,82.5,520,1,SBD,Single-ply
M,Open,Silvio Crisafi,108,-315,315,,315,270,-300,-300,270,290,-305,-315,290,110,875,1,SBD,Single-ply
M,Open,Simone Grossi,93,180,-190,190,190,130,-135,135,135,170,180,-200,180,100,505,1,SBD,Single-ply
M,Junior,Simone Vignale,76.7,145,-155,155,155,110,115,-120,115,-190,190,200,200,82.5,470,1,SBD,Raw
M,Junior,Stefano Balma,92.5,150,157.5,-162.5,157.5,100,105,-110,105,150,160,-170,160,100,422.5,1,SBD,Raw
M,Master I,Stefano Bettati,83.1,-270,,,,,,,,,,,,90,,DQ,SBD,Single-ply
M,Junior,Stefano Cinque,74.9,130,140,155,155,90,97.5,107.5,107.5,160,172.5,190,190,75,452.5,2,SBD,Raw
M,Open,Stefano Leuter,94.6,170,180,190,190,-135,140,147.5,147.5,210,230,242.5,242.5,100,580,2,SBD,Raw
M,Junior,Stefano Zampa,74.7,190,-205,210,210,145,155,162.5,162.5,210,230,237.5,237.5,75,610,1,SBD,Single-ply
M,Open,Sukhwinder Kumar,66.1,190,200,205,205,150,-155,-155,150,190,-205,-205,190,67.5,545,1,SBD,Single-ply
M,Open,Valerio Treviso,84.4,200,210,-230,210,-140,140,150,150,260,270,275,275,90,635,1,SBD,Single-ply
M,Open,Valerio Vaccaro,94.2,-200,205,-220,205,170,-175,-175,170,180,200,220,220,100,595,1,SBD,Raw
