Division,WeightClassKg,Place,Name,Team,BodyweightKg,Best3SquatKg,Best3BenchKg,Best3DeadliftKg,TotalKg,Equipment,Event,Sex
Girls,44.23,1,Yesenia Pena,Del Rio,43.18,117.93,58.97,108.86,285.76,Single-ply,SBD,F
Girls,44.23,2,Raelee Reyes,San Marcos,43.54,106.59,52.16,111.13,269.89,Single-ply,SBD,F
Girls,44.23,3,Betzy Rodriguez,Elgin,42.09,81.65,27.22,90.72,199.58,Single-ply,SBD,F
Girls,44.23,4,Becca Jaramillo,Elgin,43.73,72.57,31.75,79.38,183.7,Single-ply,SBD,F
Girls,44.23,DQ,Ericka Knowles,San Antonio East Central,44.09,99.79,,,,Single-ply,SBD,F
Girls,47.85,1,Julissa Avalos,San Marcos,47.63,92.99,54.43,104.33,251.74,Single-ply,SBD,F
Girls,47.85,2,Anamarie Fajardo,Kyle Lehman,46.99,99.79,45.36,99.79,244.94,Single-ply,SBD,F
Girls,47.85,3,Ashlynn Tatsch,Gonzales,46.63,79.38,43.09,88.45,210.92,Single-ply,SBD,F
Girls,47.85,4,Selena Williams,Del Rio,44.91,68.04,29.48,77.11,174.63,Single-ply,SBD,F
Girls,47.85,5,Lauren Flores,Buda Hays,47.81,52.16,27.22,,79.38,Single-ply,SB,F
Girls,47.85,DQ,Audrei Garces,Del Valle,46.18,54.43,29.48,,,Single-ply,SBD,F
Girls,51.94,1,Abbi Hernandez,Seguin,51.44,111.13,58.97,117.93,288.03,Single-ply,SBD,F
Girls,51.94,2,Bryanna Willette,Seguin,48.35,90.72,49.9,106.59,247.21,Single-ply,SBD,F
Girls,51.94,3,Sabrina Lopez,San Antonio East Central,51.8,95.25,47.63,104.33,247.21,Single-ply,SBD,F
Girls,51.94,4,Ashlee Hernandez,Seguin,48.26,90.72,49.9,97.52,238.14,Single-ply,SBD,F
Girls,51.94,5,Cassie Hernandez,San Marcos,51.26,74.84,43.09,111.13,229.06,Single-ply,SBD,F
Girls,51.94,6,Cynthia Canas,San Marcos,50.67,61.23,31.75,88.45,181.44,Single-ply,SBD,F
Girls,51.94,DQ,Gricelda Siller,San Antonio East Central,48.99,99.79,,,,Single-ply,SBD,F
Girls,51.94,DQ,Alexis Villalobos,Elgin,50.98,117.93,,,,Single-ply,SBD,F
Girls,51.94,DQ,Katelyn Tidwell,Buda Hays,51.71,,,,,Single-ply,SBD,F
Girls,51.94,DQ,Salma Ramirez,Elgin,48.81,,,,,Single-ply,SBD,F
Girls,56.02,1,Ileana Gonzales,Lockhart,55.43,106.59,61.23,129.27,297.1,Single-ply,SBD,F
Girls,56.02,2,Jenna Gonzales,San Marcos,55.52,102.06,52.16,131.54,285.76,Single-ply,SBD,F
Girls,56.02,3,Bryanna Brett,San Antonio East Central,55.79,104.33,52.16,120.2,276.69,Single-ply,SBD,F
Girls,56.02,4,Robyn Ramon,San Marcos,55.7,111.13,52.16,106.59,269.89,Single-ply,SBD,F
Girls,56.02,5,Paige Sutphen,San Marcos,55.79,102.06,56.7,111.13,269.89,Single-ply,SBD,F
Girls,56.02,6,Gracie Hough,Buda Hays,55.88,108.86,45.36,115.67,269.89,Single-ply,SBD,F
Girls,56.02,7,Memory Seale,Buda Hays,55.88,86.18,45.36,113.4,244.94,Single-ply,SBD,F
Girls,56.02,8,Isabel Rodriguez,San Marcos,55.57,79.38,36.29,106.59,222.26,Single-ply,SBD,F
Girls,56.02,9,Tori Ince,Gonzales,55.97,86.18,34.02,99.79,219.99,Single-ply,SBD,F
Girls,56.02,10,Alivia Fajardo,Kyle Lehman,53.52,81.65,36.29,99.79,217.72,Single-ply,SBD,F
Girls,56.02,11,Paige Sexton,Del Valle,55.34,79.38,38.56,90.72,208.65,Single-ply,SBD,F
Girls,56.02,12,Hannah Durnell,Austin Lake Travis,54.34,74.84,34.02,88.45,197.31,Single-ply,SBD,F
Girls,56.02,13,Monique Avalos,Geronimo Navarro,55.16,61.23,38.56,83.91,183.7,Single-ply,SBD,F
Girls,56.02,14,Dayanara Hernandez,Del Rio,53.16,74.84,24.95,72.57,172.37,Single-ply,SBD,F
Girls,60.1,1,Kali Palomarez,Kyle Lehman,59.6,142.88,68.04,136.08,347,Single-ply,SBD,F
Girls,60.1,2,Rubylee Perez,Kyle Lehman,59.78,136.08,56.7,124.74,317.51,Single-ply,SBD,F
Girls,60.1,3,Khelsea Cray,Gonzales,57.52,122.47,52.16,136.08,310.71,Single-ply,SBD,F
Girls,60.1,4,Gloria Horton,Lockhart,58.79,120.2,47.63,136.08,303.91,Single-ply,SBD,F
Girls,60.1,5,Laurel Eeds,Lockhart,59.51,99.79,49.9,136.08,285.76,Single-ply,SBD,F
Girls,60.1,6,Shaanti Rivas,San Marcos,57.83,113.4,43.09,124.74,281.23,Single-ply,SBD,F
Girls,60.1,7,Savi Delao,Seguin,57.42,99.79,45.36,113.4,258.55,Single-ply,SBD,F
Girls,60.1,8,Alyssa DeLuna,Gonzales,58.51,97.52,40.82,97.52,235.87,Single-ply,SBD,F
Girls,60.1,9,Morgan Schmidt,Seguin,59.06,88.45,40.82,106.59,235.87,Single-ply,SBD,F
Girls,60.1,10,Ava Schwarzlose,Geronimo Navarro,59.15,86.18,36.29,106.59,229.06,Single-ply,SBD,F
Girls,60.1,11,Natalie Lira #2,Del Rio,56.7,49.9,31.75,83.91,165.56,Single-ply,SBD,F
Girls,60.1,DQ,Kat Johnson,San Marcos,59.74,113.4,,,,Single-ply,SBD,F
Girls,67.36,1,Brittney Butler,Geronimo Navarro,67.04,147.42,77.11,149.69,374.21,Single-ply,SBD,F
Girls,67.36,2,Jamie Shaw,Austin Lake Travis,63.41,111.13,52.16,124.74,288.03,Single-ply,SBD,F
Girls,67.36,3,Lauren Yanez,Lockhart,65.68,120.2,49.9,117.93,288.03,Single-ply,SBD,F
Girls,67.36,4,Rebecca Castillo,Seguin,64.59,117.93,49.9,117.93,285.76,Single-ply,SBD,F
Girls,67.36,5,Brittany Acosta,Elgin,61.23,106.59,47.63,111.13,265.35,Single-ply,SBD,F
Girls,67.36,6,Esme Morales,Elgin,61.33,99.79,49.9,113.4,263.08,Single-ply,SBD,F
Girls,67.36,7,Sara Urbanski,Lockhart,63.68,111.13,45.36,106.59,263.08,Single-ply,SBD,F
Girls,67.36,8,Kristi Martinez,Elgin,65.41,106.59,36.29,115.67,258.55,Single-ply,SBD,F
Girls,67.36,9,Morgan Fitzgerald,Buda Hays,65.5,102.06,45.36,111.13,258.55,Single-ply,SBD,F
Girls,67.36,10,Rashida Rosalez,Seguin,67.31,104.33,43.09,111.13,258.55,Single-ply,SBD,F
Girls,67.36,11,Olivia Pello,Elgin,60.33,92.99,40.82,117.93,251.74,Single-ply,SBD,F
Girls,67.36,12,Claudia Palomarez,Kyle Lehman,63.87,99.79,43.09,108.86,251.74,Single-ply,SBD,F
Girls,67.36,13,Caitlin Innes,Geronimo Navarro,65.95,97.52,45.36,97.52,240.4,Single-ply,SBD,F
Girls,67.36,14,Brenah Reed,Buda Hays,62.41,86.18,43.09,102.06,231.33,Single-ply,SBD,F
Girls,67.36,15,Cristal Garcia,Gonzales,66.68,97.52,36.29,92.99,226.8,Single-ply,SBD,F
Girls,67.36,16,Asia Thompson,Gonzales,61.96,83.91,43.09,97.52,224.53,Single-ply,SBD,F
Girls,67.36,17,Dyanna Balderas,Austin Lake Travis,64.86,79.38,38.56,97.52,215.46,Single-ply,SBD,F
Girls,67.36,18,Jillyanna Avalos,Geronimo Navarro,60.42,86.18,36.29,81.65,204.12,Single-ply,SBD,F
Girls,67.36,19,Brynn Stadtmueller,Geronimo Navarro,62.05,88.45,43.09,68.04,199.58,Single-ply,SBD,F
Girls,67.36,20,Faith Herman,Lockhart,65.68,79.38,34.02,61.23,174.63,Single-ply,SBD,F
Girls,75.07,1,Kaitlyn Jackson,San Marcos,72.57,156.49,79.38,154.22,390.09,Single-ply,SBD,F
Girls,75.07,2,Miranda Garcia,Seguin,71.3,142.88,70.31,163.29,376.48,Single-ply,SBD,F
Girls,75.07,3,Alexis Ysla,Kyle Lehman,69.85,156.49,63.5,151.95,371.95,Single-ply,SBD,F
Girls,75.07,4,Laurel Wilke,Seguin,72.94,138.35,65.77,154.22,358.34,Single-ply,SBD,F
Girls,75.07,5,Ariella Zuniga,San Antonio East Central,74.12,136.08,58.97,136.08,331.12,Single-ply,SBD,F
Girls,75.07,6,Audrey Gonzales,Geronimo Navarro,72.57,129.27,61.23,138.35,328.85,Single-ply,SBD,F
Girls,75.07,7,Mia Palomarez,Kyle Lehman,68.04,106.59,58.97,113.4,278.96,Single-ply,SBD,F
Girls,75.07,8,Samantha Huggins,Buda Hays,72.39,104.33,52.16,108.86,265.35,Single-ply,SBD,F
Girls,75.07,9,Elizabeth Rodriguez,Del Valle,74.39,111.13,49.9,102.06,263.08,Single-ply,SBD,F
Girls,75.07,10,Galilea Rodriguez,Gonzales,70.76,115.67,38.56,106.59,260.82,Single-ply,SBD,F
Girls,75.07,11,Savannah McDougall,Kyle Lehman,73.66,104.33,49.9,104.33,258.55,Single-ply,SBD,F
Girls,75.07,12,Abigail Turrubiartes,Kyle Lehman,69.04,81.65,45.36,90.72,217.72,Single-ply,SBD,F
Girls,75.07,13,Crystal Martinez,Del Valle,68.4,61.23,31.75,83.91,176.9,Single-ply,SBD,F
Girls,75.07,14,Madaelyn Zaragoza,Del Rio,71.58,49.9,40.82,83.91,174.63,Single-ply,SBD,F
Girls,82.33,1,Alyssa De Los Santos,San Marcos,80.78,170.1,88.45,161.03,419.57,Single-ply,SBD,F
Girls,82.33,2,Alexis Ortiz,Seguin,79.2,172.37,92.99,138.35,403.7,Single-ply,SBD,F
Girls,82.33,3,Annalyssa Salinas,Lockhart,77.66,131.54,54.43,129.27,315.25,Single-ply,SBD,F
Girls,82.33,4,Crystal Mendez,Buda Hays,79.2,136.08,49.9,127.01,312.98,Single-ply,SBD,F
Girls,82.33,5,Gaby Santos,Del Rio,78.2,115.67,61.23,81.65,258.55,Single-ply,SBD,F
Girls,82.33,6,Naya Acosta,Del Valle,76.84,83.91,38.56,102.06,224.53,Single-ply,SBD,F
Girls,82.33,7,Savanna Hinojosa,Lockhart,75.57,81.65,34.02,92.99,208.65,Single-ply,SBD,F
Girls,90.04,1,Jacqueline Montejano,Del Rio,87.72,158.76,81.65,176.9,417.3,Single-ply,SBD,F
Girls,90.04,2,N'shambe Burrus,San Antonio East Central,87.18,158.76,56.7,165.56,381.02,Single-ply,SBD,F
Girls,90.04,3,Evelyn Ramirez,Kyle Lehman,88.18,151.95,72.57,147.42,371.95,Single-ply,SBD,F
Girls,90.04,4,Mariah Castillo,Lockhart,82.83,151.95,54.43,158.76,365.14,Single-ply,SBD,F
Girls,90.04,5,Jackson Delani,Buda Hays,83.46,124.74,47.63,102.06,274.42,Single-ply,SBD,F
Girls,100.02,1,Jayce Holmes,Seguin,90.72,97.52,56.7,102.06,256.28,Single-ply,SBD,F
Girls,100.02,DQ,Serena Smith,Elgin,97.11,140.61,54.43,,,Single-ply,SBD,F
Girls,100.02+,1,Ericka Hernandez,Gonzales,101.6,190.51,81.65,181.44,453.59,Single-ply,SBD,F
Girls,100.02+,2,Qy'Shawn Bradshaw,Elgin,149.41,170.1,54.43,156.49,381.02,Single-ply,SBD,F
Girls,100.02+,3,Becca Gonzales,Elgin,109.95,158.76,74.84,142.88,376.48,Single-ply,SBD,F
Girls,100.02+,4,JoJo Wilford,Elgin,143.24,149.69,72.57,142.88,365.14,Single-ply,SBD,F
Girls,100.02+,5,Melysa Alvarez,Kyle Lehman,101.42,149.69,70.31,120.2,340.19,Single-ply,SBD,F
Girls,100.02+,6,Gabby Rodriguez,Gonzales,112.22,149.69,72.57,117.93,340.19,Single-ply,SBD,F
Girls,100.02+,7,Aria Metcalf,San Antonio East Central,111.95,122.47,54.43,142.88,319.78,Single-ply,SBD,F
Girls,100.02+,8,Kya Guerra,Del Rio,129.91,102.06,31.75,108.86,242.67,Single-ply,SBD,F
Girls,100.02+,9,Dinora DeLaCruz,Austin Lake Travis,109.95,56.7,38.56,97.52,192.78,Single-ply,SBD,F
Girls,100.02+,DQ,Sailor Mayberry,Buda Hays,107.32,,,,,Single-ply,SBD,F
